fastpeRmute • fastpeRmute
…
Compute combinations without repetition:

combinations(n = 10, r = 4)

## # A tibble: 210 × 4
##       V1    V2    V3    V4
##    <int> <int> <int> <int>
##  1     1     2     3     4
##  2     1     2     3     5
##  3     1     2     3     6
##  4     1     2     3     7
##  5     1     2     3     8
##  6     1     2     3     9
##  7     1     2     3    10
##  8     1     2     4     5
##  9     1     2     4     6
## 10     1     2     4     7
## # ℹ 200 more rows

With Repetition

Compute combinations with repetition:

combinations(n = 10, r = 4, repeats.allowed = T)

## # A tibble: 715 × 4
##       V1    V2    V3    V4
##    <int> <int> <int> <int>
##  1     1     1     1     1
##  2     1     1     1     2
##  3     1     1     1     3
##  4     1     1     1     4
##  5     1     1     1     5
##  6     1     1     1     6
##  7     1     1     1     7
##  8     1     1     1     8
##  9     1     1     1     9
## 10     1     1     1    10
## # ℹ 705 more rows
…
Using Vectors and Lists

Sometimes, it’s helpful to generate combinations or permutations of
specific objects.

Combinations from a Vector

Using the built-in letters vector:

v = letters
combinations(v=v, r = 3)

## # A tibble: 2,600 × 3
##    V1    V2    V3   
##    <chr> <chr> <chr>
##  1 a     b     c    
##  2 a     b     d    
##  3 a     b     e    
##  4 a     b     f    
##  5 a     b     g    
##  6 a     b     h    
##  7 a     b     i    
##  8 a     b     j    
##  9 a     b     k    
## 10 a     b     l    
## # ℹ 2,590 more rows
…
